oradea -> giurgiu: 292.95 miles
zerind -> giurgiu: 286.90 miles
arad -> giurgiu: 276.96 miles
timisoara -> giurgiu: 266.11 miles
lugoj -> giurgiu: 234.74 miles
mehadia -> giurgiu: 191.11 miles
dobreta -> giurgiu: 171.60 miles
craiova -> giurgiu: 111.96 miles
pitesti -> giurgiu: 85.47 miles
bucharest -> giurgiu: 36.77 miles
giurgiu -> giurgiu: 0.00 miles
urziceni -> giurgiu: 65.50 miles
hirsova -> giurgiu: 111.89 miles
eforie -> giurgiu: 133.91 miles
vaslui -> giurgiu: 207.74 miles
iasi -> giurgiu: 238.60 miles
neamt -> giurgiu: 213.44 miles
fagaras -> giurgiu: 142.67 miles
sibiu -> giurgiu: 159.22 miles
vilcea -> giurgiu: 123.61 miles