oradea -> iasi: 267.61 miles
zerind -> iasi: 289.90 miles
arad -> iasi: 305.89 miles
timisoara -> iasi: 319.76 miles
lugoj -> iasi: 289.94 miles
mehadia -> iasi: 295.82 miles
dobreta -> iasi: 294.88 miles
craiova -> iasi: 268.33 miles
pitesti -> iasi: 206.33 miles
bucharest -> iasi: 202.30 miles
giurgiu -> iasi: 238.60 miles
urziceni -> iasi: 174.95 miles
hirsova -> iasi: 171.59 miles
eforie -> iasi: 221.00 miles
vaslui -> iasi: 36.31 miles
iasi -> iasi: 0.00 miles
neamt -> iasi: 58.83 miles
fagaras -> iasi: 154.77 miles
sibiu -> iasi: 190.40 miles
vilcea -> iasi: 221.60 miles