oradea -> vilcea: 171.16 miles
zerind -> vilcea: 163.30 miles
arad -> vilcea: 154.35 miles
timisoara -> vilcea: 147.05 miles
lugoj -> vilcea: 114.03 miles
mehadia -> vilcea: 84.96 miles
dobreta -> vilcea: 76.24 miles
craiova -> vilcea: 53.76 miles
pitesti -> vilcea: 41.44 miles
bucharest -> vilcea: 108.97 miles
giurgiu -> vilcea: 123.61 miles
urziceni -> vilcea: 127.98 miles
hirsova -> vilcea: 191.18 miles
eforie -> vilcea: 236.15 miles
vaslui -> vilcea: 206.05 miles
iasi -> vilcea: 221.60 miles
neamt -> vilcea: 171.40 miles
fagaras -> vilcea: 68.11 miles
sibiu -> vilcea: 49.74 miles
vilcea -> vilcea: 0.00 miles